<?xml version="1.0" encoding="UTF-8"?>
<glyph name="S" format="1">
  <advance width="563"/>
  <unicode hex="0053"/>
  <outline>
    <contour>
      <point x="250,009" y="797,997" type="curve"/>
      <point x="350,25" y="797,997"/>
      <point x="477,25" y="586,667"/>
      <point x="477,25" y="540,667" type="curve"/>
      <point x="489,75" y="540,667" type="line"/>
      <point x="471,75" y="804,667" type="line"/>
      <point x="463,375" y="804,667" type="line"/>
      <point x="463,375" y="804,667"/>
      <point x="461,75" y="756,667"/>
      <point x="430,25" y="756,667" type="curve"/>
      <point x="390" y="756,667"/>
      <point x="362,5" y="814,998"/>
      <point x="254,01" y="814,998" type="curve"/>
      <point x="114" y="815"/>
      <point x="9" y="702"/>
      <point x="9" y="560" type="curve" smooth="yes"/>
      <point x="9" y="321,4"/>
      <point x="399,446" y="353,396"/>
      <point x="399,992" y="136" type="curve"/>
      <point x="399,992" y="68"/>
      <point x="372,593" y="2,99219"/>
      <point x="275" y="3" type="curve"/>
      <point x="181" y="3"/>
      <point x="66,6592" y="162,733"/>
      <point x="34" y="305" type="curve"/>
      <point x="20,9355" y="305" type="line"/>
      <point x="16,0371" y="-1" type="line"/>
      <point x="16,0127" y="-0,902344"/>
      <point x="23,3008" y="-1,04297"/>
      <point x="31" y="-1" type="curve"/>
      <point x="31" y="25"/>
      <point x="48" y="38"/>
      <point x="61" y="38" type="curve"/>
      <point x="91,25" y="38"/>
      <point x="197,81" y="-15"/>
      <point x="275,125" y="-15" type="curve" smooth="yes"/>
      <point x="435,159" y="-15"/>
      <point x="537" y="100,357"/>
      <point x="537" y="237,831" type="curve"/>
      <point x="537" y="524"/>
      <point x="139" y="467"/>
      <point x="139" y="676" type="curve"/>
      <point x="139" y="715"/>
      <point x="145,199" y="798,31"/>
    </contour>
  </outline>
  <lib>
    <dict>
      <key>com.fontlab.hintData</key>
      <dict>
	<key>hhints</key>
	<array>
	  <dict>
	    <key>position</key>	    <integer>-15</integer>
	    <key>width</key>	    <integer>18</integer>
	  </dict>
	  <dict>
	    <key>position</key>	    <integer>798</integer>
	    <key>width</key>	    <integer>17</integer>
	  </dict>
	</array>
	<key>vhints</key>
	<array>
	  <dict>
	    <key>position</key>
	    <integer>9</integer>
	    <key>width</key>
	    <integer>130</integer>
	  </dict>
	  <dict>
	    <key>position</key>
	    <integer>16</integer>
	    <key>width</key>
	    <integer>15</integer>
	  </dict>
	  <dict>
	    <key>position</key>
	    <integer>400</integer>
	    <key>width</key>
	    <integer>137</integer>
	  </dict>
	  <dict>
	    <key>position</key>
	    <integer>463</integer>
	    <key>width</key>
	    <integer>8</integer>
	  </dict>
	  <dict>
	    <key>position</key>
	    <integer>477</integer>
	    <key>width</key>
	    <integer>12</integer>
	  </dict>
	</array>
      </dict>
    </dict>
  </lib>
</glyph>
