<?xml version="1.0" encoding="UTF-8"?>
<glyph name="(null)" format="1">
  <advance width="0"/>
  <outline>
  </outline>
  <lib>
    <dict>
      <key>com.schriftgestaltung.Glyphs.Export</key>
      <false/>
      <key>com.schriftgestaltung.Glyphs.ColorIndex</key>
      <integer>0</integer>
      <key>public.markColor</key>
      <string>6e-321,2.1e-314,1.9e-322,nan</string>
    </dict>
  </lib>
</glyph>
