<?xml version="1.0" encoding="UTF-8"?>
<glyph name="daggerdbl" format="1">
  <advance width="307"/>
  <unicode hex="2021"/>
  <outline>
    <contour>
      <point x="300" y="134"/>
      <point x="303" y="136"/>
      <point x="304" y="138" type="curve"/>
      <point x="309" y="147"/>
      <point x="311" y="161"/>
      <point x="310" y="171" type="curve"/>
      <point x="307" y="179"/>
      <point x="304" y="188"/>
      <point x="296" y="192" type="curve"/>
      <point x="281" y="194"/>
      <point x="266" y="191"/>
      <point x="250" y="192" type="curve"/>
      <point x="244" y="192"/>
      <point x="198" y="191"/>
      <point x="191" y="191" type="curve" smooth="yes"/>
      <point x="186" y="191"/>
      <point x="185" y="189"/>
      <point x="183" y="188" type="curve"/>
      <point x="183" y="216" type="line" smooth="yes"/>
      <point x="183" y="236"/>
      <point x="182" y="255"/>
      <point x="183" y="274" type="curve"/>
      <point x="207" y="276"/>
      <point x="266" y="283"/>
      <point x="277" y="278" type="curve" smooth="yes"/>
      <point x="284" y="275"/>
      <point x="294" y="278"/>
      <point x="299" y="283" type="curve" smooth="yes"/>
      <point x="302" y="286"/>
      <point x="303" y="289"/>
      <point x="304" y="291" type="curve"/>
      <point x="309" y="300"/>
      <point x="303" y="311"/>
      <point x="302" y="321" type="curve"/>
      <point x="299" y="329"/>
      <point x="304" y="340"/>
      <point x="296" y="344" type="curve"/>
      <point x="281" y="346"/>
      <point x="266" y="343"/>
      <point x="250" y="344" type="curve"/>
      <point x="244" y="344"/>
      <point x="236" y="345"/>
      <point x="229" y="345" type="curve" smooth="yes"/>
      <point x="223" y="345"/>
      <point x="194" y="344"/>
      <point x="182" y="343" type="curve"/>
      <point x="182" y="349"/>
      <point x="181" y="355"/>
      <point x="181" y="361" type="curve" smooth="yes"/>
      <point x="181" y="381"/>
      <point x="183" y="404"/>
      <point x="181" y="423" type="curve"/>
      <point x="181" y="430"/>
      <point x="183" y="434"/>
      <point x="184" y="441" type="curve"/>
      <point x="181" y="503"/>
      <point x="181" y="573"/>
      <point x="181" y="642" type="curve" smooth="yes"/>
      <point x="181" y="651"/>
      <point x="183" y="663"/>
      <point x="183" y="672" type="curve" smooth="yes"/>
      <point x="183" y="685"/>
      <point x="181" y="699"/>
      <point x="181" y="711" type="curve" smooth="yes"/>
      <point x="181" y="715"/>
      <point x="182" y="718"/>
      <point x="181" y="720" type="curve"/>
      <point x="181" y="730"/>
      <point x="181" y="720"/>
      <point x="180" y="730" type="curve"/>
      <point x="181" y="735"/>
      <point x="182" y="746"/>
      <point x="181" y="755" type="curve"/>
      <point x="181" y="764"/>
      <point x="181" y="772"/>
      <point x="179" y="777" type="curve"/>
      <point x="175" y="785"/>
      <point x="155" y="784"/>
      <point x="147" y="785" type="curve"/>
      <point x="136" y="785"/>
      <point x="115" y="787"/>
      <point x="110" y="780" type="curve"/>
      <point x="104" y="769"/>
      <point x="108" y="745"/>
      <point x="105" y="730" type="curve"/>
      <point x="110" y="698"/>
      <point x="105" y="681"/>
      <point x="110" y="651" type="curve"/>
      <point x="109" y="589"/>
      <point x="109" y="528"/>
      <point x="110" y="467" type="curve" smooth="yes"/>
      <point x="110" y="424"/>
      <point x="108" y="384"/>
      <point x="111" y="349" type="curve"/>
      <point x="111" y="348"/>
      <point x="110" y="347"/>
      <point x="110" y="346" type="curve"/>
      <point x="96" y="347"/>
      <point x="80" y="346"/>
      <point x="63" y="344" type="curve"/>
      <point x="50" y="342"/>
      <point x="40" y="345"/>
      <point x="32" y="344" type="curve"/>
      <point x="26" y="343"/>
      <point x="11" y="346"/>
      <point x="8" y="342" type="curve"/>
      <point x="1" y="336"/>
      <point x="4" y="324"/>
      <point x="3" y="313" type="curve" smooth="yes"/>
      <point x="2" y="302"/>
      <point x="-1" y="293"/>
      <point x="0" y="282" type="curve" smooth="yes"/>
      <point x="1" y="268"/>
      <point x="16" y="267"/>
      <point x="32" y="272" type="curve" smooth="yes"/>
      <point x="39" y="274"/>
      <point x="63" y="271"/>
      <point x="71" y="272" type="curve"/>
      <point x="75" y="272"/>
      <point x="75" y="273"/>
      <point x="73" y="274" type="curve"/>
      <point x="88" y="277" type="line"/>
      <point x="110" y="277" type="line"/>
      <point x="110" y="270"/>
      <point x="111" y="263"/>
      <point x="111" y="256" type="curve" smooth="yes"/>
      <point x="111" y="242"/>
      <point x="112" y="238"/>
      <point x="110" y="226" type="curve"/>
      <point x="112" y="221"/>
      <point x="112" y="212"/>
      <point x="112" y="202" type="curve" smooth="yes"/>
      <point x="112" y="199"/>
      <point x="111" y="195"/>
      <point x="111" y="192" type="curve"/>
      <point x="107" y="192"/>
      <point x="102" y="191"/>
      <point x="98" y="191" type="curve"/>
      <point x="85" y="189"/>
      <point x="34" y="193"/>
      <point x="26" y="192" type="curve"/>
      <point x="20" y="191"/>
      <point x="14" y="190"/>
      <point x="8" y="190" type="curve"/>
      <point x="1" y="184"/>
      <point x="-2" y="174"/>
      <point x="-3" y="163" type="curve" smooth="yes"/>
      <point x="-4" y="152"/>
      <point x="-3" y="140"/>
      <point x="0" y="129" type="curve"/>
      <point x="7" y="124"/>
      <point x="10" y="114"/>
      <point x="26" y="119" type="curve" smooth="yes"/>
      <point x="33" y="121"/>
      <point x="41" y="122"/>
      <point x="49" y="123" type="curve" smooth="yes"/>
      <point x="60" y="124"/>
      <point x="61" y="124"/>
      <point x="70" y="121" type="curve"/>
      <point x="88" y="124" type="line"/>
      <point x="113" y="124" type="line"/>
      <point x="113" y="117" type="line" smooth="yes"/>
      <point x="113" y="98"/>
      <point x="112" y="78"/>
      <point x="112" y="59" type="curve" smooth="yes"/>
      <point x="112" y="42"/>
      <point x="113" y="21"/>
      <point x="113" y="6" type="curve"/>
      <point x="112" y="-13"/>
      <point x="112" y="-32"/>
      <point x="116" y="-48" type="curve"/>
      <point x="121" y="-54"/>
      <point x="131" y="-50"/>
      <point x="140" y="-50" type="curve"/>
      <point x="149" y="-49"/>
      <point x="177" y="-47"/>
      <point x="183" y="-40" type="curve"/>
      <point x="187" y="-28"/>
      <point x="184" y="-2"/>
      <point x="185" y="16" type="curve"/>
      <point x="183" y="23"/>
      <point x="184" y="33"/>
      <point x="181" y="38" type="curve"/>
      <point x="183" y="121" type="line"/>
      <point x="206" y="123"/>
      <point x="266" y="130"/>
      <point x="277" y="125" type="curve" smooth="yes"/>
      <point x="284" y="122"/>
      <point x="292" y="129"/>
      <point x="299" y="130" type="curve"/>
    </contour>
  </outline>
</glyph>
