<?xml version="1.0" encoding="UTF-8"?>
<glyph name="dollar" format="1">
  <advance width="499"/>
  <unicode hex="0024"/>
  <outline>
    <contour>
      <point x="49" y="166"/>
      <point x="46" y="160"/>
      <point x="40" y="157" type="curve"/>
      <point x="37" y="151"/>
      <point x="30" y="149"/>
      <point x="29" y="141" type="curve" smooth="yes"/>
      <point x="28" y="131"/>
      <point x="31" y="124"/>
      <point x="30" y="113" type="curve"/>
      <point x="37" y="105"/>
      <point x="43" y="98"/>
      <point x="46" y="88" type="curve"/>
      <point x="64" y="73"/>
      <point x="79" y="54"/>
      <point x="95" y="38" type="curve"/>
      <point x="112" y="31"/>
      <point x="128" y="23"/>
      <point x="142" y="13" type="curve"/>
      <point x="161" y="8"/>
      <point x="183" y="4"/>
      <point x="206" y="1" type="curve"/>
      <point x="206" y="-11" type="line"/>
      <point x="205" y="-30"/>
      <point x="205" y="-49"/>
      <point x="209" y="-65" type="curve"/>
      <point x="214" y="-71"/>
      <point x="217" y="-67"/>
      <point x="226" y="-67" type="curve"/>
      <point x="235" y="-66"/>
      <point x="245" y="-68"/>
      <point x="251" y="-61" type="curve"/>
      <point x="255" y="-49"/>
      <point x="252" y="-23"/>
      <point x="253" y="-5" type="curve"/>
      <point x="251" y="2" type="line"/>
      <point x="254" y="2"/>
      <point x="256" y="3"/>
      <point x="257" y="4" type="curve"/>
      <point x="260" y="4"/>
      <point x="260" y="2"/>
      <point x="264" y="2" type="curve"/>
      <point x="273" y="3"/>
      <point x="281" y="7"/>
      <point x="289" y="7" type="curve"/>
      <point x="299" y="12"/>
      <point x="310" y="17"/>
      <point x="322" y="21" type="curve"/>
      <point x="324" y="26"/>
      <point x="333" y="26"/>
      <point x="336" y="30" type="curve"/>
      <point x="343" y="32"/>
      <point x="345" y="38"/>
      <point x="353" y="36" type="curve"/>
      <point x="364" y="50"/>
      <point x="375" y="63"/>
      <point x="390" y="73" type="curve"/>
      <point x="394" y="82"/>
      <point x="399" y="91"/>
      <point x="406" y="99" type="curve"/>
      <point x="411" y="108"/>
      <point x="413" y="120"/>
      <point x="421" y="126" type="curve"/>
      <point x="423" y="138"/>
      <point x="429" y="149"/>
      <point x="431" y="161" type="curve"/>
      <point x="434" y="173"/>
      <point x="436" y="189"/>
      <point x="436" y="202" type="curve"/>
      <point x="431" y="206"/>
      <point x="434" y="219"/>
      <point x="431" y="225" type="curve"/>
      <point x="429" y="233"/>
      <point x="427" y="240"/>
      <point x="428" y="251" type="curve"/>
      <point x="414" y="288" type="line"/>
      <point x="400" y="306"/>
      <point x="383" y="322"/>
      <point x="367" y="337" type="curve"/>
      <point x="339" y="348"/>
      <point x="328" y="374"/>
      <point x="292" y="374" type="curve"/>
      <point x="287" y="379"/>
      <point x="281" y="384"/>
      <point x="275" y="388" type="curve"/>
      <point x="266" y="390"/>
      <point x="257" y="393"/>
      <point x="249" y="397" type="curve"/>
      <point x="249" y="402" type="line" smooth="yes"/>
      <point x="249" y="409"/>
      <point x="251" y="413"/>
      <point x="252" y="420" type="curve"/>
      <point x="249" y="482"/>
      <point x="249" y="552"/>
      <point x="249" y="621" type="curve" smooth="yes"/>
      <point x="249" y="630"/>
      <point x="251" y="642"/>
      <point x="251" y="651" type="curve" smooth="yes"/>
      <point x="251" y="656" type="line"/>
      <point x="261" y="654"/>
      <point x="272" y="650"/>
      <point x="282" y="648" type="curve"/>
      <point x="295" y="640"/>
      <point x="307" y="631"/>
      <point x="321" y="623" type="curve"/>
      <point x="326" y="613"/>
      <point x="337" y="609"/>
      <point x="340" y="598" type="curve"/>
      <point x="350" y="593"/>
      <point x="352" y="580"/>
      <point x="364" y="575" type="curve"/>
      <point x="371" y="577"/>
      <point x="376" y="581"/>
      <point x="381" y="585" type="curve"/>
      <point x="384" y="591"/>
      <point x="392" y="592"/>
      <point x="391" y="602" type="curve"/>
      <point x="391" y="613"/>
      <point x="385" y="617"/>
      <point x="381" y="623" type="curve"/>
      <point x="378" y="630"/>
      <point x="374" y="636"/>
      <point x="370" y="643" type="curve"/>
      <point x="356" y="654"/>
      <point x="342" y="666"/>
      <point x="329" y="678" type="curve"/>
      <point x="319" y="683"/>
      <point x="308" y="688"/>
      <point x="301" y="696" type="curve"/>
      <point x="288" y="696"/>
      <point x="280" y="701"/>
      <point x="269" y="703" type="curve"/>
      <point x="262" y="703"/>
      <point x="256" y="704"/>
      <point x="249" y="704" type="curve"/>
      <point x="249" y="714" type="line" smooth="yes"/>
      <point x="249" y="723"/>
      <point x="249" y="731"/>
      <point x="247" y="736" type="curve"/>
      <point x="243" y="744"/>
      <point x="236" y="743"/>
      <point x="228" y="744" type="curve"/>
      <point x="217" y="744"/>
      <point x="210" y="746"/>
      <point x="205" y="739" type="curve"/>
      <point x="200" y="731"/>
      <point x="201" y="715"/>
      <point x="201" y="702" type="curve"/>
      <point x="194" y="702" type="line"/>
      <point x="186" y="697"/>
      <point x="175" y="696"/>
      <point x="165" y="692" type="curve"/>
      <point x="156" y="688"/>
      <point x="148" y="683"/>
      <point x="138" y="680" type="curve"/>
      <point x="129" y="673"/>
      <point x="123" y="665"/>
      <point x="112" y="661" type="curve"/>
      <point x="102" y="647"/>
      <point x="88" y="636"/>
      <point x="77" y="623" type="curve"/>
      <point x="68" y="603"/>
      <point x="62" y="581"/>
      <point x="55" y="559" type="curve"/>
      <point x="58" y="543"/>
      <point x="56" y="522"/>
      <point x="56" y="504" type="curve"/>
      <point x="58" y="499"/>
      <point x="60" y="495"/>
      <point x="60" y="490" type="curve"/>
      <point x="70" y="472"/>
      <point x="73" y="448"/>
      <point x="86" y="435" type="curve"/>
      <point x="89" y="426"/>
      <point x="100" y="424"/>
      <point x="103" y="415" type="curve"/>
      <point x="107" y="413"/>
      <point x="108" y="407"/>
      <point x="114" y="407" type="curve"/>
      <point x="117" y="403"/>
      <point x="120" y="399"/>
      <point x="125" y="398" type="curve"/>
      <point x="129" y="395"/>
      <point x="134" y="393"/>
      <point x="138" y="391" type="curve"/>
      <point x="143" y="389"/>
      <point x="146" y="386"/>
      <point x="151" y="383" type="curve"/>
      <point x="153" y="382"/>
      <point x="155" y="383"/>
      <point x="158" y="382" type="curve" smooth="yes"/>
      <point x="161" y="381"/>
      <point x="163" y="378"/>
      <point x="165" y="377" type="curve"/>
      <point x="170" y="375"/>
      <point x="175" y="375"/>
      <point x="181" y="372" type="curve"/>
      <point x="185" y="371"/>
      <point x="189" y="368"/>
      <point x="193" y="366" type="curve" smooth="yes"/>
      <point x="197" y="364"/>
      <point x="200" y="362"/>
      <point x="204" y="361" type="curve"/>
      <point x="204" y="349"/>
      <point x="205" y="338"/>
      <point x="206" y="328" type="curve"/>
      <point x="204" y="297"/>
      <point x="205" y="267"/>
      <point x="206" y="235" type="curve" smooth="yes"/>
      <point x="206" y="221"/>
      <point x="207" y="217"/>
      <point x="205" y="205" type="curve"/>
      <point x="207" y="200"/>
      <point x="207" y="191"/>
      <point x="207" y="181" type="curve"/>
      <point x="205" y="151"/>
      <point x="208" y="123"/>
      <point x="208" y="96" type="curve" smooth="yes"/>
      <point x="208" y="80"/>
      <point x="207" y="64"/>
      <point x="207" y="49" type="curve"/>
      <point x="200" y="48"/>
      <point x="200" y="54"/>
      <point x="194" y="54" type="curve"/>
      <point x="188" y="55"/>
      <point x="187" y="51"/>
      <point x="180" y="52" type="curve"/>
      <point x="171" y="58"/>
      <point x="161" y="63"/>
      <point x="149" y="65" type="curve"/>
      <point x="141" y="72"/>
      <point x="135" y="80"/>
      <point x="123" y="82" type="curve"/>
      <point x="115" y="89"/>
      <point x="107" y="95"/>
      <point x="98" y="101" type="curve"/>
      <point x="94" y="110"/>
      <point x="88" y="117"/>
      <point x="82" y="123" type="curve"/>
      <point x="80" y="133"/>
      <point x="74" y="137"/>
      <point x="73" y="145" type="curve"/>
      <point x="70" y="154"/>
      <point x="66" y="163"/>
      <point x="58" y="166" type="curve"/>
    </contour>
    <contour>
      <point x="251" y="216"/>
      <point x="250" y="236"/>
      <point x="252" y="256" type="curve"/>
      <point x="248" y="272"/>
      <point x="251" y="291"/>
      <point x="251" y="309" type="curve" smooth="yes"/>
      <point x="251" y="320"/>
      <point x="250" y="330"/>
      <point x="249" y="340" type="curve"/>
      <point x="249" y="342" type="line"/>
      <point x="257" y="338"/>
      <point x="266" y="335"/>
      <point x="275" y="333" type="curve"/>
      <point x="285" y="322"/>
      <point x="301" y="318"/>
      <point x="316" y="313" type="curve"/>
      <point x="325" y="305"/>
      <point x="334" y="298"/>
      <point x="344" y="292" type="curve"/>
      <point x="354" y="283"/>
      <point x="362" y="275"/>
      <point x="370" y="266" type="curve"/>
      <point x="376" y="253"/>
      <point x="386" y="242"/>
      <point x="390" y="227" type="curve"/>
      <point x="389" y="211"/>
      <point x="392" y="199"/>
      <point x="392" y="183" type="curve"/>
      <point x="388" y="171"/>
      <point x="385" y="158"/>
      <point x="379" y="148" type="curve"/>
      <point x="375" y="136"/>
      <point x="364" y="130"/>
      <point x="361" y="117" type="curve"/>
      <point x="355" y="112"/>
      <point x="348" y="106"/>
      <point x="344" y="101" type="curve"/>
      <point x="340" y="97"/>
      <point x="339" y="92"/>
      <point x="335" y="89" type="curve"/>
      <point x="324" y="86"/>
      <point x="318" y="79"/>
      <point x="311" y="73" type="curve"/>
      <point x="304" y="73"/>
      <point x="301" y="69"/>
      <point x="297" y="67" type="curve"/>
      <point x="284" y="65"/>
      <point x="276" y="60"/>
      <point x="267" y="56" type="curve"/>
      <point x="260" y="56"/>
      <point x="255" y="55"/>
      <point x="250" y="53" type="curve"/>
      <point x="251" y="102"/>
      <point x="251" y="152"/>
      <point x="251" y="195" type="curve" smooth="yes"/>
    </contour>
    <contour>
      <point x="204" y="568"/>
      <point x="204" y="507"/>
      <point x="205" y="446" type="curve" smooth="yes"/>
      <point x="205" y="413" type="line"/>
      <point x="188" y="423"/>
      <point x="172" y="434"/>
      <point x="153" y="443" type="curve"/>
      <point x="140" y="458"/>
      <point x="123" y="467"/>
      <point x="113" y="484" type="curve"/>
      <point x="114" y="501"/>
      <point x="110" y="512"/>
      <point x="107" y="525" type="curve"/>
      <point x="106" y="535"/>
      <point x="108" y="548"/>
      <point x="105" y="555" type="curve"/>
      <point x="110" y="563"/>
      <point x="112" y="572"/>
      <point x="115" y="581" type="curve"/>
      <point x="120" y="586"/>
      <point x="125" y="594"/>
      <point x="127" y="603" type="curve"/>
      <point x="141" y="614"/>
      <point x="151" y="630"/>
      <point x="167" y="639" type="curve" smooth="yes"/>
      <point x="176" y="644"/>
      <point x="189" y="649"/>
      <point x="202" y="653" type="curve"/>
      <point x="202" y="648"/>
      <point x="203" y="641"/>
      <point x="205" y="630" type="curve"/>
    </contour>
  </outline>
</glyph>
