<?xml version="1.0" encoding="UTF-8"?>
<glyph name="Eacute" format="1">
  <advance width="463"/>
  <unicode hex="00C9"/>
  <outline>
    <contour>
      <point x="395" y="20"/>
      <point x="400" y="30"/>
      <point x="400" y="41" type="curve"/>
      <point x="399" y="53"/>
      <point x="393" y="64"/>
      <point x="385" y="69" type="curve"/>
      <point x="376" y="71"/>
      <point x="367" y="69"/>
      <point x="357" y="69" type="curve"/>
      <point x="348" y="70"/>
      <point x="338" y="72"/>
      <point x="329" y="72" type="curve" smooth="yes"/>
      <point x="320" y="72"/>
      <point x="311" y="71"/>
      <point x="302" y="71" type="curve" smooth="yes"/>
      <point x="295" y="71"/>
      <point x="289" y="74"/>
      <point x="281" y="74" type="curve" smooth="yes"/>
      <point x="274" y="74"/>
      <point x="265" y="72"/>
      <point x="258" y="72" type="curve"/>
      <point x="239" y="73"/>
      <point x="224" y="75"/>
      <point x="209" y="71" type="curve"/>
      <point x="185" y="81"/>
      <point x="162" y="62"/>
      <point x="140" y="72" type="curve"/>
      <point x="132" y="73"/>
      <point x="124" y="68"/>
      <point x="119" y="74" type="curve"/>
      <point x="119" y="202" type="line" smooth="yes"/>
      <point x="119" y="226"/>
      <point x="117" y="251"/>
      <point x="118" y="276" type="curve"/>
      <point x="118" y="286"/>
      <point x="120" y="295"/>
      <point x="119" y="306" type="curve"/>
      <point x="115" y="322"/>
      <point x="116" y="341"/>
      <point x="119" y="358" type="curve"/>
      <point x="136" y="365"/>
      <point x="159" y="356"/>
      <point x="177" y="361" type="curve"/>
      <point x="211" y="354"/>
      <point x="256" y="360"/>
      <point x="288" y="355" type="curve"/>
      <point x="319" y="359"/>
      <point x="349" y="356"/>
      <point x="376" y="359" type="curve"/>
      <point x="392" y="370" type="line"/>
      <point x="398" y="381"/>
      <point x="398" y="399"/>
      <point x="392" y="410" type="curve"/>
      <point x="364" y="430"/>
      <point x="319" y="418"/>
      <point x="281" y="421" type="curve"/>
      <point x="271" y="416"/>
      <point x="255" y="418"/>
      <point x="240" y="418" type="curve"/>
      <point x="223" y="423"/>
      <point x="202" y="419"/>
      <point x="187" y="415" type="curve"/>
      <point x="167" y="423"/>
      <point x="134" y="411"/>
      <point x="119" y="421" type="curve"/>
      <point x="114" y="432"/>
      <point x="122" y="444"/>
      <point x="122" y="455" type="curve"/>
      <point x="124" y="465"/>
      <point x="115" y="465"/>
      <point x="116" y="474" type="curve"/>
      <point x="120" y="491"/>
      <point x="116" y="507"/>
      <point x="116" y="523" type="curve" smooth="yes"/>
      <point x="116" y="531"/>
      <point x="118" y="539"/>
      <point x="118" y="547" type="curve"/>
      <point x="117" y="555"/>
      <point x="116" y="562"/>
      <point x="116" y="569" type="curve" smooth="yes"/>
      <point x="116" y="579"/>
      <point x="121" y="588"/>
      <point x="121" y="597" type="curve" smooth="yes"/>
      <point x="121" y="608"/>
      <point x="116" y="618"/>
      <point x="118" y="629" type="curve"/>
      <point x="121" y="633"/>
      <point x="128" y="635"/>
      <point x="133" y="637" type="curve"/>
      <point x="140" y="638"/>
      <point x="144" y="642"/>
      <point x="152" y="641" type="curve"/>
      <point x="162" y="641"/>
      <point x="169" y="638"/>
      <point x="177" y="637" type="curve"/>
      <point x="187" y="641"/>
      <point x="202" y="639"/>
      <point x="212" y="643" type="curve"/>
      <point x="241" y="643"/>
      <point x="271" y="642"/>
      <point x="294" y="645" type="curve"/>
      <point x="298" y="641"/>
      <point x="306" y="642"/>
      <point x="311" y="640" type="curve"/>
      <point x="330" y="646"/>
      <point x="348" y="641"/>
      <point x="370" y="641" type="curve"/>
      <point x="378" y="647"/>
      <point x="389" y="648"/>
      <point x="393" y="659" type="curve"/>
      <point x="398" y="670"/>
      <point x="392" y="681"/>
      <point x="389" y="694" type="curve"/>
      <point x="381" y="695"/>
      <point x="377" y="701"/>
      <point x="367" y="700" type="curve"/>
      <point x="336" y="698"/>
      <point x="305" y="699"/>
      <point x="274" y="698" type="curve" smooth="yes"/>
      <point x="257" y="698"/>
      <point x="241" y="701"/>
      <point x="225" y="700" type="curve" smooth="yes"/>
      <point x="208" y="699"/>
      <point x="192" y="696"/>
      <point x="176" y="697" type="curve" smooth="yes"/>
      <point x="158" y="698"/>
      <point x="140" y="701"/>
      <point x="122" y="701" type="curve"/>
      <point x="108" y="694"/>
      <point x="85" y="704"/>
      <point x="72" y="697" type="curve"/>
      <point x="68" y="693"/>
      <point x="69" y="689"/>
      <point x="69" y="684" type="curve"/>
      <point x="66" y="662"/>
      <point x="67" y="637"/>
      <point x="67" y="618" type="curve" smooth="yes"/>
      <point x="67" y="612"/>
      <point x="66" y="606"/>
      <point x="65" y="601" type="curve"/>
      <point x="65" y="588"/>
      <point x="67" y="575"/>
      <point x="67" y="563" type="curve" smooth="yes"/>
      <point x="67" y="541"/>
      <point x="64" y="519"/>
      <point x="67" y="501" type="curve"/>
      <point x="61" y="482"/>
      <point x="66" y="453"/>
      <point x="65" y="435" type="curve"/>
      <point x="65" y="430"/>
      <point x="64" y="426"/>
      <point x="64" y="421" type="curve" smooth="yes"/>
      <point x="64" y="413"/>
      <point x="66" y="405"/>
      <point x="67" y="397" type="curve"/>
      <point x="68" y="382"/>
      <point x="67" y="368"/>
      <point x="67" y="356" type="curve" smooth="yes"/>
      <point x="67" y="349"/>
      <point x="69" y="343"/>
      <point x="69" y="336" type="curve"/>
      <point x="68" y="323"/>
      <point x="67" y="310"/>
      <point x="67" y="298" type="curve"/>
      <point x="68" y="278"/>
      <point x="71" y="258"/>
      <point x="65" y="244" type="curve"/>
      <point x="65" y="232"/>
      <point x="73" y="211"/>
      <point x="65" y="197" type="curve"/>
      <point x="71" y="187"/>
      <point x="66" y="175"/>
      <point x="67" y="161" type="curve"/>
      <point x="66" y="153"/>
      <point x="72" y="150"/>
      <point x="70" y="142" type="curve"/>
      <point x="68" y="100"/>
      <point x="60" y="60"/>
      <point x="64" y="20" type="curve"/>
      <point x="71" y="7"/>
      <point x="91" y="7"/>
      <point x="106" y="2" type="curve"/>
      <point x="117" y="3"/>
      <point x="129" y="7"/>
      <point x="140" y="8" type="curve" smooth="yes"/>
      <point x="156" y="9"/>
      <point x="175" y="6"/>
      <point x="193" y="6" type="curve"/>
      <point x="215" y="7"/>
      <point x="236" y="8"/>
      <point x="258" y="5" type="curve"/>
      <point x="301" y="12"/>
      <point x="349" y="1"/>
      <point x="389" y="14" type="curve"/>
    </contour>
    <contour>
      <point x="147" y="719"/>
      <point x="163" y="722"/>
      <point x="173" y="725" type="curve"/>
      <point x="177" y="728"/>
      <point x="181" y="731"/>
      <point x="186" y="733" type="curve"/>
      <point x="191" y="740"/>
      <point x="199" y="745"/>
      <point x="202" y="755" type="curve"/>
      <point x="214" y="760"/>
      <point x="223" y="770"/>
      <point x="230" y="781" type="curve"/>
      <point x="233" y="784"/>
      <point x="238" y="784"/>
      <point x="241" y="786" type="curve"/>
      <point x="243" y="793"/>
      <point x="248" y="797"/>
      <point x="251" y="804" type="curve"/>
      <point x="257" y="805"/>
      <point x="262" y="809"/>
      <point x="268" y="811" type="curve"/>
      <point x="273" y="822"/>
      <point x="283" y="829"/>
      <point x="284" y="844" type="curve"/>
      <point x="280" y="854"/>
      <point x="277" y="864"/>
      <point x="271" y="871" type="curve"/>
      <point x="264" y="873"/>
      <point x="252" y="876"/>
      <point x="244" y="873" type="curve"/>
      <point x="234" y="867"/>
      <point x="230" y="853"/>
      <point x="221" y="846" type="curve"/>
      <point x="215" y="835"/>
      <point x="206" y="827"/>
      <point x="200" y="816" type="curve"/>
      <point x="189" y="810" type="line"/>
      <point x="186" y="799"/>
      <point x="180" y="793"/>
      <point x="175" y="786" type="curve"/>
      <point x="167" y="776"/>
      <point x="159" y="766"/>
      <point x="151" y="758" type="curve"/>
      <point x="149" y="746"/>
      <point x="142" y="741"/>
      <point x="142" y="728" type="curve"/>
    </contour>
  </outline>
</glyph>
