<?xml version="1.0" encoding="UTF-8"?>
<glyph name="multiply" format="1">
  <advance width="368"/>
  <unicode hex="00D7"/>
  <outline>
    <contour>
      <point x="85" y="310"/>
      <point x="83" y="309"/>
      <point x="80" y="308" type="curve" smooth="yes"/>
      <point x="71" y="305"/>
      <point x="59" y="297"/>
      <point x="53" y="289" type="curve"/>
      <point x="49" y="281"/>
      <point x="45" y="273"/>
      <point x="48" y="264" type="curve"/>
      <point x="57" y="252"/>
      <point x="87" y="228"/>
      <point x="97" y="216" type="curve"/>
      <point x="102" y="212"/>
      <point x="117" y="193"/>
      <point x="122" y="188" type="curve"/>
      <point x="123" y="186"/>
      <point x="125" y="185"/>
      <point x="126" y="184" type="curve"/>
      <point x="123" y="179" type="line"/>
      <point x="115" y="169"/>
      <point x="68" y="127"/>
      <point x="63" y="120" type="curve"/>
      <point x="59" y="116"/>
      <point x="56" y="111"/>
      <point x="51" y="106" type="curve"/>
      <point x="51" y="97"/>
      <point x="56" y="88"/>
      <point x="63" y="79" type="curve"/>
      <point x="70" y="71"/>
      <point x="79" y="63"/>
      <point x="89" y="58" type="curve"/>
      <point x="97" y="59"/>
      <point x="107" y="54"/>
      <point x="114" y="69" type="curve"/>
      <point x="128" y="88" type="line"/>
      <point x="135" y="96"/>
      <point x="144" y="106"/>
      <point x="153" y="110" type="curve"/>
      <point x="163" y="125" type="line"/>
      <point x="173" y="135" type="line"/>
      <point x="175" y="133"/>
      <point x="177" y="132"/>
      <point x="179" y="131" type="curve"/>
      <point x="190" y="123"/>
      <point x="239" y="70"/>
      <point x="246" y="65" type="curve"/>
      <point x="251" y="62"/>
      <point x="256" y="58"/>
      <point x="260" y="54" type="curve"/>
      <point x="269" y="53"/>
      <point x="278" y="58"/>
      <point x="287" y="65" type="curve"/>
      <point x="295" y="72"/>
      <point x="303" y="81"/>
      <point x="309" y="91" type="curve"/>
      <point x="315" y="106"/>
      <point x="300" y="112"/>
      <point x="288" y="121" type="curve"/>
      <point x="280" y="128"/>
      <point x="271" y="137"/>
      <point x="266" y="146" type="curve"/>
      <point x="261" y="150"/>
      <point x="239" y="168"/>
      <point x="234" y="171" type="curve"/>
      <point x="231" y="173"/>
      <point x="227" y="177"/>
      <point x="222" y="182" type="curve"/>
      <point x="241" y="204"/>
      <point x="277" y="247"/>
      <point x="288" y="251" type="curve"/>
      <point x="295" y="253"/>
      <point x="295" y="264"/>
      <point x="300" y="270" type="curve"/>
      <point x="298" y="273"/>
      <point x="298" y="277"/>
      <point x="298" y="279" type="curve"/>
      <point x="295" y="289"/>
      <point x="286" y="300"/>
      <point x="278" y="306" type="curve"/>
      <point x="271" y="310"/>
      <point x="262" y="314"/>
      <point x="254" y="311" type="curve"/>
      <point x="242" y="302"/>
      <point x="233" y="289"/>
      <point x="221" y="279" type="curve"/>
      <point x="180" y="236" type="line"/>
      <point x="176" y="231" type="line"/>
      <point x="154" y="251"/>
      <point x="113" y="288"/>
      <point x="109" y="298" type="curve" smooth="yes"/>
      <point x="106" y="305"/>
      <point x="97" y="310"/>
      <point x="90" y="310" type="curve" smooth="yes"/>
    </contour>
  </outline>
</glyph>
