<?xml version="1.0" encoding="UTF-8"?>
<glyph name="onehalf" format="1">
  <advance width="754"/>
  <unicode hex="00BD"/>
  <outline>
    <contour>
      <point x="634" y="85"/>
      <point x="635" y="122"/>
      <point x="628" y="133" type="curve"/>
      <point x="619" y="133"/>
      <point x="609" y="129"/>
      <point x="597" y="129" type="curve"/>
      <point x="590" y="128"/>
      <point x="576" y="128"/>
      <point x="565" y="128" type="curve"/>
      <point x="562" y="129"/>
      <point x="560" y="126"/>
      <point x="558" y="126" type="curve"/>
      <point x="549" y="129"/>
      <point x="538" y="128"/>
      <point x="528" y="127" type="curve"/>
      <point x="522" y="126"/>
      <point x="516" y="126"/>
      <point x="514" y="129" type="curve"/>
      <point x="516" y="133"/>
      <point x="519" y="137"/>
      <point x="524" y="138" type="curve"/>
      <point x="529" y="143"/>
      <point x="535" y="147"/>
      <point x="545" y="149" type="curve"/>
      <point x="549" y="154"/>
      <point x="554" y="159"/>
      <point x="558" y="162" type="curve"/>
      <point x="564" y="165"/>
      <point x="568" y="171"/>
      <point x="575" y="173" type="curve"/>
      <point x="578" y="176"/>
      <point x="580" y="178"/>
      <point x="581" y="182" type="curve"/>
      <point x="585" y="184"/>
      <point x="589" y="184"/>
      <point x="590" y="190" type="curve"/>
      <point x="594" y="196"/>
      <point x="595" y="205"/>
      <point x="601" y="211" type="curve"/>
      <point x="601" y="217"/>
      <point x="604" y="219"/>
      <point x="605" y="223" type="curve"/>
      <point x="604" y="230"/>
      <point x="606" y="246"/>
      <point x="605" y="250" type="curve"/>
      <point x="604" y="261"/>
      <point x="604" y="269"/>
      <point x="604" y="278" type="curve"/>
      <point x="601" y="283"/>
      <point x="599" y="288"/>
      <point x="599" y="296" type="curve"/>
      <point x="594" y="306"/>
      <point x="586" y="314"/>
      <point x="580" y="324" type="curve"/>
      <point x="574" y="330"/>
      <point x="568" y="334"/>
      <point x="563" y="340" type="curve"/>
      <point x="557" y="343"/>
      <point x="554" y="346"/>
      <point x="549" y="349" type="curve"/>
      <point x="543" y="353"/>
      <point x="538" y="354"/>
      <point x="534" y="358" type="curve"/>
      <point x="521" y="359"/>
      <point x="515" y="364"/>
      <point x="504" y="366" type="curve"/>
      <point x="487" y="366" type="line"/>
      <point x="484" y="365"/>
      <point x="480" y="363"/>
      <point x="475" y="364" type="curve"/>
      <point x="470" y="362"/>
      <point x="467" y="359"/>
      <point x="460" y="360" type="curve"/>
      <point x="457" y="357"/>
      <point x="453" y="354"/>
      <point x="448" y="353" type="curve"/>
      <point x="438" y="349"/>
      <point x="430" y="344"/>
      <point x="419" y="338" type="curve"/>
      <point x="415" y="332"/>
      <point x="410" y="327"/>
      <point x="405" y="321" type="curve"/>
      <point x="400" y="314"/>
      <point x="397" y="305"/>
      <point x="390" y="300" type="curve"/>
      <point x="389" y="294"/>
      <point x="388" y="289"/>
      <point x="386" y="286" type="curve"/>
      <point x="385" y="278"/>
      <point x="384" y="270"/>
      <point x="381" y="265" type="curve"/>
      <point x="383" y="258"/>
      <point x="381" y="253"/>
      <point x="381" y="247" type="curve"/>
      <point x="380" y="235"/>
      <point x="384" y="224"/>
      <point x="384" y="212" type="curve"/>
      <point x="387" y="209"/>
      <point x="388" y="201"/>
      <point x="390" y="198" type="curve"/>
      <point x="391" y="197"/>
      <point x="395" y="192"/>
      <point x="395" y="192" type="curve"/>
      <point x="396" y="192"/>
      <point x="424" y="198"/>
      <point x="428" y="200" type="curve"/>
      <point x="432" y="201"/>
      <point x="437" y="206"/>
      <point x="437" y="208" type="curve" smooth="yes"/>
      <point x="437" y="210"/>
      <point x="430" y="236"/>
      <point x="428" y="244" type="curve"/>
      <point x="428" y="250"/>
      <point x="431" y="255"/>
      <point x="428" y="260" type="curve"/>
      <point x="431" y="265"/>
      <point x="433" y="269"/>
      <point x="434" y="276" type="curve"/>
      <point x="439" y="280"/>
      <point x="442" y="284"/>
      <point x="445" y="289" type="curve"/>
      <point x="451" y="294"/>
      <point x="455" y="301"/>
      <point x="462" y="305" type="curve"/>
      <point x="468" y="308"/>
      <point x="474" y="310"/>
      <point x="480" y="311" type="curve"/>
      <point x="482" y="311"/>
      <point x="484" y="310"/>
      <point x="484" y="310" type="curve"/>
      <point x="494" y="310"/>
      <point x="503" y="312"/>
      <point x="510" y="309" type="curve"/>
      <point x="517" y="308"/>
      <point x="523" y="302"/>
      <point x="529" y="302" type="curve"/>
      <point x="535" y="297"/>
      <point x="541" y="294"/>
      <point x="546" y="288" type="curve"/>
      <point x="548" y="281"/>
      <point x="552" y="278"/>
      <point x="555" y="272" type="curve"/>
      <point x="557" y="264"/>
      <point x="558" y="253"/>
      <point x="559" y="243" type="curve"/>
      <point x="557" y="236"/>
      <point x="557" y="230"/>
      <point x="551" y="221" type="curve"/>
      <point x="547" y="211"/>
      <point x="522" y="184"/>
      <point x="522" y="184" type="curve" smooth="yes"/>
      <point x="522" y="184"/>
      <point x="513" y="174"/>
      <point x="506" y="171" type="curve"/>
      <point x="503" y="165"/>
      <point x="492" y="165"/>
      <point x="490" y="158" type="curve"/>
      <point x="477" y="151"/>
      <point x="469" y="140"/>
      <point x="454" y="134" type="curve"/>
      <point x="452" y="127"/>
      <point x="445" y="126"/>
      <point x="441" y="120" type="curve"/>
      <point x="435" y="118"/>
      <point x="429" y="114"/>
      <point x="425" y="111" type="curve"/>
      <point x="423" y="110"/>
      <point x="420" y="110"/>
      <point x="419" y="108" type="curve"/>
      <point x="412" y="104"/>
      <point x="406" y="98"/>
      <point x="400" y="95" type="curve"/>
      <point x="396" y="89"/>
      <point x="388" y="89"/>
      <point x="388" y="82" type="curve"/>
      <point x="394" y="76"/>
      <point x="401" y="80"/>
      <point x="409" y="80" type="curve"/>
      <point x="425" y="81"/>
      <point x="447" y="78"/>
      <point x="461" y="80" type="curve"/>
      <point x="464" y="81"/>
      <point x="464" y="77"/>
      <point x="469" y="78" type="curve"/>
      <point x="477" y="82" type="line"/>
      <point x="484" y="80"/>
      <point x="494" y="79"/>
      <point x="501" y="79" type="curve"/>
      <point x="505" y="80"/>
      <point x="512" y="79"/>
      <point x="519" y="79" type="curve" smooth="yes"/>
      <point x="527" y="79"/>
      <point x="535" y="80"/>
      <point x="541" y="78" type="curve"/>
      <point x="546" y="80"/>
      <point x="556" y="77"/>
      <point x="560" y="82" type="curve"/>
      <point x="564" y="78"/>
      <point x="571" y="80"/>
      <point x="575" y="80" type="curve" smooth="yes"/>
      <point x="579" y="80"/>
      <point x="581" y="79"/>
      <point x="585" y="79" type="curve"/>
      <point x="594" y="80"/>
      <point x="602" y="82"/>
      <point x="612" y="82" type="curve" smooth="yes"/>
      <point x="620" y="82"/>
      <point x="634" y="85"/>
      <point x="634" y="85" type="curve" smooth="yes"/>
    </contour>
    <contour>
      <point x="333" y="397"/>
      <point x="341" y="405"/>
      <point x="341" y="407" type="curve"/>
      <point x="357" y="455"/>
      <point x="379" y="497"/>
      <point x="402" y="549" type="curve"/>
      <point x="405" y="557"/>
      <point x="412" y="558"/>
      <point x="415" y="568" type="curve"/>
      <point x="420" y="591"/>
      <point x="429" y="610"/>
      <point x="440" y="637" type="curve"/>
      <point x="450" y="650"/>
      <point x="460" y="671"/>
      <point x="454" y="679" type="curve"/>
      <point x="408" y="694"/>
      <point x="411" y="670"/>
      <point x="397" y="633" type="curve"/>
      <point x="392" y="616"/>
      <point x="384" y="600"/>
      <point x="377" y="583" type="curve"/>
      <point x="367" y="556"/>
      <point x="352" y="519"/>
      <point x="340" y="495" type="curve"/>
      <point x="334" y="480" type="line"/>
      <point x="328" y="467"/>
      <point x="324" y="456"/>
      <point x="318" y="444" type="curve" smooth="yes"/>
      <point x="312" y="431"/>
      <point x="282" y="354"/>
      <point x="271" y="344" type="curve"/>
      <point x="268" y="329" type="line" smooth="yes"/>
      <point x="264" y="312"/>
      <point x="251" y="296"/>
      <point x="249" y="280" type="curve"/>
      <point x="237" y="264"/>
      <point x="235" y="247"/>
      <point x="225" y="231" type="curve"/>
      <point x="215" y="194"/>
      <point x="189" y="146"/>
      <point x="173" y="110" type="curve"/>
      <point x="161" y="73"/>
      <point x="129" y="17"/>
      <point x="119" y="-11" type="curve"/>
      <point x="112" y="-22"/>
      <point x="106" y="-34"/>
      <point x="103" y="-45" type="curve"/>
      <point x="98" y="-53"/>
      <point x="92" y="-60"/>
      <point x="88" y="-69" type="curve"/>
      <point x="89" y="-84"/>
      <point x="83" y="-87"/>
      <point x="103" y="-86" type="curve" smooth="yes"/>
      <point x="124" y="-85"/>
      <point x="125" y="-86"/>
      <point x="137" y="-70" type="curve"/>
      <point x="145" y="-64"/>
      <point x="142" y="-56"/>
      <point x="145" y="-50" type="curve"/>
      <point x="150" y="-45"/>
      <point x="148" y="-36"/>
      <point x="151" y="-29" type="curve" smooth="yes"/>
      <point x="176" y="29"/>
      <point x="152" y="-33"/>
      <point x="174" y="25" type="curve"/>
      <point x="177" y="32"/>
      <point x="182" y="35"/>
      <point x="185" y="42" type="curve"/>
      <point x="188" y="56"/>
      <point x="195" y="70"/>
      <point x="202" y="85" type="curve" smooth="yes"/>
      <point x="203" y="87"/>
      <point x="201" y="87"/>
      <point x="202" y="89" type="curve"/>
      <point x="208" y="100"/>
      <point x="217" y="113"/>
      <point x="218" y="124" type="curve"/>
      <point x="228" y="144"/>
      <point x="236" y="166"/>
      <point x="246" y="189" type="curve"/>
      <point x="254" y="211" type="line"/>
      <point x="257" y="217"/>
      <point x="263" y="225"/>
      <point x="266" y="231" type="curve" smooth="yes"/>
      <point x="275" y="248"/>
      <point x="279" y="264"/>
      <point x="285" y="278" type="curve" smooth="yes"/>
      <point x="292" y="296"/>
      <point x="297" y="312"/>
      <point x="308" y="328" type="curve"/>
      <point x="308" y="328"/>
      <point x="338" y="392"/>
      <point x="336" y="395" type="curve"/>
    </contour>
    <contour>
      <point x="235" y="348"/>
      <point x="239" y="353"/>
      <point x="238" y="360" type="curve"/>
      <point x="238" y="362"/>
      <point x="236" y="362"/>
      <point x="237" y="364" type="curve"/>
      <point x="236" y="369"/>
      <point x="234" y="375"/>
      <point x="234" y="382" type="curve" smooth="yes"/>
      <point x="234" y="383"/>
      <point x="235" y="385"/>
      <point x="235" y="386" type="curve" smooth="yes"/>
      <point x="235" y="389"/>
      <point x="234" y="391"/>
      <point x="234" y="392" type="curve"/>
      <point x="233" y="406"/>
      <point x="235" y="421"/>
      <point x="232" y="434" type="curve"/>
      <point x="236" y="443"/>
      <point x="233" y="455"/>
      <point x="233" y="465" type="curve" smooth="yes"/>
      <point x="233" y="490" type="line" smooth="yes"/>
      <point x="233" y="521"/>
      <point x="232" y="550"/>
      <point x="233" y="578" type="curve"/>
      <point x="233" y="585"/>
      <point x="234" y="591"/>
      <point x="234" y="599" type="curve" smooth="yes"/>
      <point x="234" y="605"/>
      <point x="234" y="614"/>
      <point x="231" y="619" type="curve"/>
      <point x="225" y="623"/>
      <point x="217" y="620"/>
      <point x="212" y="620" type="curve"/>
      <point x="210" y="619"/>
      <point x="207" y="621"/>
      <point x="206" y="621" type="curve" smooth="yes"/>
      <point x="197" y="621"/>
      <point x="188" y="619"/>
      <point x="179" y="619" type="curve" smooth="yes"/>
      <point x="152" y="619" type="line" smooth="yes"/>
      <point x="142" y="619"/>
      <point x="134" y="620"/>
      <point x="125" y="617" type="curve"/>
      <point x="122" y="611"/>
      <point x="123" y="604"/>
      <point x="122" y="596" type="curve" smooth="yes"/>
      <point x="121" y="588"/>
      <point x="120" y="580"/>
      <point x="122" y="572" type="curve"/>
      <point x="124" y="571"/>
      <point x="126" y="569"/>
      <point x="127" y="566" type="curve"/>
      <point x="143" y="561"/>
      <point x="156" y="571"/>
      <point x="176" y="568" type="curve"/>
      <point x="183" y="564"/>
      <point x="181" y="549"/>
      <point x="184" y="541" type="curve"/>
      <point x="183" y="531"/>
      <point x="185" y="522"/>
      <point x="183" y="512" type="curve"/>
      <point x="183" y="507"/>
      <point x="184" y="501"/>
      <point x="184" y="497" type="curve"/>
      <point x="181" y="484"/>
      <point x="183" y="469"/>
      <point x="186" y="456" type="curve"/>
      <point x="183" y="435"/>
      <point x="187" y="408"/>
      <point x="183" y="390" type="curve"/>
      <point x="187" y="376"/>
      <point x="181" y="361"/>
      <point x="183" y="350" type="curve"/>
      <point x="187" y="345" type="line"/>
      <point x="193" y="339"/>
      <point x="205" y="342"/>
      <point x="214" y="343" type="curve"/>
      <point x="220" y="343"/>
      <point x="227" y="341"/>
      <point x="232" y="344" type="curve"/>
    </contour>
  </outline>
</glyph>
