<?xml version="1.0" encoding="UTF-8"?>
<glyph name="onequarter" format="1">
  <advance width="742"/>
  <unicode hex="00BC"/>
  <outline>
    <contour>
      <point x="616" y="71"/>
      <point x="617" y="75"/>
      <point x="617" y="79" type="curve" smooth="yes"/>
      <point x="617" y="80"/>
      <point x="616" y="80"/>
      <point x="616" y="81" type="curve"/>
      <point x="614" y="92"/>
      <point x="617" y="106"/>
      <point x="612" y="114" type="curve"/>
      <point x="593" y="117"/>
      <point x="572" y="111"/>
      <point x="552" y="117" type="curve"/>
      <point x="549" y="133"/>
      <point x="551" y="151"/>
      <point x="548" y="168" type="curve"/>
      <point x="551" y="177" type="line"/>
      <point x="548" y="219"/>
      <point x="549" y="256"/>
      <point x="551" y="299" type="curve"/>
      <point x="548" y="309" type="line"/>
      <point x="551" y="315"/>
      <point x="550" y="325"/>
      <point x="552" y="332" type="curve"/>
      <point x="552" y="342"/>
      <point x="553" y="351"/>
      <point x="546" y="353" type="curve"/>
      <point x="532" y="352"/>
      <point x="533" y="339"/>
      <point x="525" y="334" type="curve"/>
      <point x="525" y="329"/>
      <point x="520" y="327"/>
      <point x="518" y="322" type="curve" smooth="yes"/>
      <point x="516" y="317"/>
      <point x="512" y="315"/>
      <point x="511" y="309" type="curve"/>
      <point x="510" y="307"/>
      <point x="507" y="307"/>
      <point x="505" y="306" type="curve"/>
      <point x="502" y="300" type="line"/>
      <point x="499" y="296"/>
      <point x="495" y="293"/>
      <point x="492" y="290" type="curve"/>
      <point x="491" y="287"/>
      <point x="489" y="285"/>
      <point x="488" y="284" type="curve"/>
      <point x="474" y="268" type="line"/>
      <point x="471" y="261"/>
      <point x="465" y="256"/>
      <point x="461" y="250" type="curve"/>
      <point x="456" y="245"/>
      <point x="453" y="239"/>
      <point x="448" y="234" type="curve"/>
      <point x="444" y="234"/>
      <point x="446" y="229"/>
      <point x="444" y="228" type="curve"/>
      <point x="442" y="226"/>
      <point x="440" y="226"/>
      <point x="440" y="221" type="curve"/>
      <point x="433" y="217"/>
      <point x="429" y="211"/>
      <point x="423" y="204" type="curve"/>
      <point x="417" y="198"/>
      <point x="415" y="190"/>
      <point x="408" y="185" type="curve"/>
      <point x="406" y="182"/>
      <point x="402" y="180"/>
      <point x="400" y="175" type="curve"/>
      <point x="396" y="174"/>
      <point x="396" y="168"/>
      <point x="393" y="167" type="curve"/>
      <point x="389" y="159"/>
      <point x="384" y="153"/>
      <point x="378" y="147" type="curve"/>
      <point x="370" y="132"/>
      <point x="357" y="122"/>
      <point x="348" y="109" type="curve"/>
      <point x="342" y="103"/>
      <point x="337" y="96"/>
      <point x="332" y="89" type="curve"/>
      <point x="328" y="81"/>
      <point x="319" y="79"/>
      <point x="319" y="68" type="curve"/>
      <point x="324" y="59"/>
      <point x="333" y="62"/>
      <point x="343" y="62" type="curve" smooth="yes"/>
      <point x="347" y="62"/>
      <point x="351" y="61"/>
      <point x="354" y="61" type="curve" smooth="yes"/>
      <point x="357" y="61"/>
      <point x="363" y="63"/>
      <point x="366" y="63" type="curve" smooth="yes"/>
      <point x="372" y="63"/>
      <point x="379" y="61"/>
      <point x="386" y="61" type="curve" smooth="yes"/>
      <point x="396" y="61"/>
      <point x="408" y="62"/>
      <point x="417" y="62" type="curve" smooth="yes"/>
      <point x="424" y="62"/>
      <point x="430" y="61"/>
      <point x="435" y="62" type="curve"/>
      <point x="454" y="62" type="line"/>
      <point x="463" y="65"/>
      <point x="474" y="65"/>
      <point x="486" y="64" type="curve"/>
      <point x="490" y="63"/>
      <point x="496" y="64"/>
      <point x="500" y="61" type="curve"/>
      <point x="502" y="53"/>
      <point x="500" y="45"/>
      <point x="498" y="39" type="curve"/>
      <point x="502" y="29"/>
      <point x="500" y="18"/>
      <point x="500" y="7" type="curve" smooth="yes"/>
      <point x="500" y="-3"/>
      <point x="503" y="-13"/>
      <point x="501" y="-24" type="curve"/>
      <point x="499" y="-29"/>
      <point x="498" y="-35"/>
      <point x="496" y="-41" type="curve"/>
      <point x="503" y="-52" type="line"/>
      <point x="506" y="-54"/>
      <point x="512" y="-55"/>
      <point x="517" y="-57" type="curve"/>
      <point x="521" y="-56"/>
      <point x="525" y="-53"/>
      <point x="530" y="-53" type="curve"/>
      <point x="539" y="-52"/>
      <point x="548" y="-55"/>
      <point x="554" y="-52" type="curve"/>
      <point x="556" y="-42"/>
      <point x="553" y="-32"/>
      <point x="552" y="-22" type="curve" smooth="yes"/>
      <point x="551" y="-13"/>
      <point x="552" y="-1"/>
      <point x="552" y="6" type="curve" smooth="yes"/>
      <point x="552" y="7"/>
      <point x="551" y="9"/>
      <point x="551" y="12" type="curve" smooth="yes"/>
      <point x="551" y="21" type="line" smooth="yes"/>
      <point x="551" y="37"/>
      <point x="547" y="53"/>
      <point x="554" y="65" type="curve"/>
      <point x="565" y="65"/>
      <point x="576" y="65"/>
      <point x="585" y="64" type="curve"/>
      <point x="590" y="65"/>
      <point x="596" y="65"/>
      <point x="601" y="64" type="curve" smooth="yes"/>
      <point x="607" y="63"/>
      <point x="609" y="66"/>
      <point x="614" y="67" type="curve"/>
    </contour>
    <contour>
      <point x="350" y="397"/>
      <point x="358" y="405"/>
      <point x="358" y="407" type="curve"/>
      <point x="374" y="455"/>
      <point x="396" y="497"/>
      <point x="419" y="549" type="curve"/>
      <point x="422" y="557"/>
      <point x="429" y="558"/>
      <point x="432" y="568" type="curve"/>
      <point x="437" y="591"/>
      <point x="446" y="610"/>
      <point x="457" y="637" type="curve"/>
      <point x="467" y="650"/>
      <point x="477" y="671"/>
      <point x="471" y="679" type="curve"/>
      <point x="425" y="694"/>
      <point x="428" y="670"/>
      <point x="414" y="633" type="curve"/>
      <point x="409" y="616"/>
      <point x="401" y="600"/>
      <point x="394" y="583" type="curve"/>
      <point x="384" y="556"/>
      <point x="369" y="519"/>
      <point x="357" y="495" type="curve"/>
      <point x="351" y="480" type="line"/>
      <point x="345" y="467"/>
      <point x="341" y="456"/>
      <point x="335" y="444" type="curve" smooth="yes"/>
      <point x="329" y="431"/>
      <point x="299" y="354"/>
      <point x="288" y="344" type="curve"/>
      <point x="285" y="329" type="line" smooth="yes"/>
      <point x="281" y="312"/>
      <point x="268" y="296"/>
      <point x="266" y="280" type="curve"/>
      <point x="254" y="264"/>
      <point x="252" y="247"/>
      <point x="242" y="231" type="curve"/>
      <point x="232" y="194"/>
      <point x="206" y="146"/>
      <point x="190" y="110" type="curve"/>
      <point x="178" y="73"/>
      <point x="146" y="17"/>
      <point x="136" y="-11" type="curve"/>
      <point x="129" y="-22"/>
      <point x="123" y="-34"/>
      <point x="120" y="-45" type="curve"/>
      <point x="115" y="-53"/>
      <point x="109" y="-60"/>
      <point x="105" y="-69" type="curve"/>
      <point x="106" y="-84"/>
      <point x="100" y="-87"/>
      <point x="120" y="-86" type="curve" smooth="yes"/>
      <point x="141" y="-85"/>
      <point x="142" y="-86"/>
      <point x="154" y="-70" type="curve"/>
      <point x="162" y="-64"/>
      <point x="159" y="-56"/>
      <point x="162" y="-50" type="curve"/>
      <point x="167" y="-45"/>
      <point x="165" y="-36"/>
      <point x="168" y="-29" type="curve" smooth="yes"/>
      <point x="193" y="29"/>
      <point x="169" y="-33"/>
      <point x="191" y="25" type="curve"/>
      <point x="194" y="32"/>
      <point x="199" y="35"/>
      <point x="202" y="42" type="curve"/>
      <point x="205" y="56"/>
      <point x="212" y="70"/>
      <point x="219" y="85" type="curve" smooth="yes"/>
      <point x="220" y="87"/>
      <point x="218" y="87"/>
      <point x="219" y="89" type="curve"/>
      <point x="225" y="100"/>
      <point x="234" y="113"/>
      <point x="235" y="124" type="curve"/>
      <point x="245" y="144"/>
      <point x="253" y="166"/>
      <point x="263" y="189" type="curve"/>
      <point x="271" y="211" type="line"/>
      <point x="274" y="217"/>
      <point x="280" y="225"/>
      <point x="283" y="231" type="curve" smooth="yes"/>
      <point x="292" y="248"/>
      <point x="296" y="264"/>
      <point x="302" y="278" type="curve" smooth="yes"/>
      <point x="309" y="296"/>
      <point x="314" y="312"/>
      <point x="325" y="328" type="curve"/>
      <point x="325" y="328"/>
      <point x="355" y="392"/>
      <point x="353" y="395" type="curve"/>
    </contour>
    <contour>
      <point x="233" y="331"/>
      <point x="237" y="336"/>
      <point x="235" y="344" type="curve"/>
      <point x="235" y="345"/>
      <point x="234" y="345"/>
      <point x="235" y="347" type="curve"/>
      <point x="234" y="352"/>
      <point x="232" y="359"/>
      <point x="232" y="365" type="curve" smooth="yes"/>
      <point x="232" y="366"/>
      <point x="233" y="368"/>
      <point x="233" y="369" type="curve" smooth="yes"/>
      <point x="233" y="372"/>
      <point x="232" y="374"/>
      <point x="232" y="375" type="curve"/>
      <point x="231" y="389"/>
      <point x="233" y="404"/>
      <point x="230" y="417" type="curve"/>
      <point x="234" y="426"/>
      <point x="231" y="438"/>
      <point x="231" y="448" type="curve" smooth="yes"/>
      <point x="231" y="473" type="line" smooth="yes"/>
      <point x="231" y="504"/>
      <point x="230" y="533"/>
      <point x="231" y="561" type="curve"/>
      <point x="231" y="568"/>
      <point x="232" y="574"/>
      <point x="232" y="582" type="curve" smooth="yes"/>
      <point x="232" y="588"/>
      <point x="232" y="597"/>
      <point x="229" y="602" type="curve"/>
      <point x="222" y="606"/>
      <point x="215" y="603"/>
      <point x="210" y="603" type="curve"/>
      <point x="208" y="602"/>
      <point x="205" y="604"/>
      <point x="203" y="604" type="curve" smooth="yes"/>
      <point x="195" y="604"/>
      <point x="186" y="602"/>
      <point x="177" y="602" type="curve" smooth="yes"/>
      <point x="150" y="602" type="line" smooth="yes"/>
      <point x="140" y="602"/>
      <point x="132" y="603"/>
      <point x="123" y="601" type="curve"/>
      <point x="119" y="594"/>
      <point x="120" y="587"/>
      <point x="119" y="579" type="curve"/>
      <point x="119" y="571"/>
      <point x="118" y="563"/>
      <point x="119" y="555" type="curve"/>
      <point x="122" y="554"/>
      <point x="124" y="552"/>
      <point x="125" y="549" type="curve"/>
      <point x="141" y="544"/>
      <point x="154" y="554"/>
      <point x="173" y="551" type="curve"/>
      <point x="180" y="547"/>
      <point x="178" y="532"/>
      <point x="182" y="524" type="curve"/>
      <point x="180" y="514"/>
      <point x="183" y="505"/>
      <point x="180" y="495" type="curve"/>
      <point x="181" y="490"/>
      <point x="182" y="484"/>
      <point x="182" y="480" type="curve"/>
      <point x="179" y="467"/>
      <point x="181" y="452"/>
      <point x="183" y="439" type="curve"/>
      <point x="180" y="418"/>
      <point x="184" y="391"/>
      <point x="180" y="373" type="curve"/>
      <point x="184" y="359"/>
      <point x="179" y="344"/>
      <point x="180" y="333" type="curve"/>
      <point x="182" y="332"/>
      <point x="183" y="329"/>
      <point x="184" y="328" type="curve"/>
      <point x="191" y="322"/>
      <point x="202" y="325"/>
      <point x="212" y="326" type="curve"/>
      <point x="218" y="326"/>
      <point x="225" y="324"/>
      <point x="230" y="327" type="curve"/>
    </contour>
    <contour>
      <point x="500" y="139"/>
      <point x="502" y="124"/>
      <point x="496" y="117" type="curve"/>
      <point x="490" y="114"/>
      <point x="478" y="114"/>
      <point x="468" y="117" type="curve"/>
      <point x="459" y="114"/>
      <point x="448" y="113"/>
      <point x="437" y="117" type="curve"/>
      <point x="429" y="117"/>
      <point x="420" y="114"/>
      <point x="412" y="117" type="curve"/>
      <point x="414" y="126"/>
      <point x="422" y="129"/>
      <point x="425" y="138" type="curve"/>
      <point x="429" y="138"/>
      <point x="429" y="140"/>
      <point x="430" y="141" type="curve"/>
      <point x="434" y="147"/>
      <point x="437" y="150"/>
      <point x="441" y="155" type="curve"/>
      <point x="442" y="157"/>
      <point x="444" y="158"/>
      <point x="445" y="161" type="curve"/>
      <point x="448" y="161" type="line"/>
      <point x="449" y="164"/>
      <point x="453" y="169"/>
      <point x="457" y="174" type="curve"/>
      <point x="464" y="180"/>
      <point x="467" y="190"/>
      <point x="476" y="194" type="curve"/>
      <point x="477" y="199"/>
      <point x="481" y="202"/>
      <point x="485" y="205" type="curve"/>
      <point x="486" y="213"/>
      <point x="491" y="219"/>
      <point x="498" y="219" type="curve"/>
      <point x="500" y="194"/>
      <point x="502" y="169"/>
      <point x="498" y="147" type="curve"/>
    </contour>
  </outline>
</glyph>
