<?xml version="1.0" encoding="UTF-8"?>
<glyph name="quotedblleft" format="1">
  <advance width="347"/>
  <unicode hex="201C"/>
  <outline>
    <contour>
      <point x="113" y="774"/>
      <point x="104" y="772"/>
      <point x="97" y="774" type="curve"/>
      <point x="76" y="766"/>
      <point x="61" y="775"/>
      <point x="39" y="760" type="curve"/>
      <point x="32" y="745"/>
      <point x="41" y="725"/>
      <point x="46" y="705" type="curve"/>
      <point x="46" y="676"/>
      <point x="55" y="648"/>
      <point x="59" y="618" type="curve"/>
      <point x="61" y="611"/>
      <point x="61" y="605"/>
      <point x="62" y="597" type="curve"/>
      <point x="68" y="564" type="line" smooth="yes"/>
      <point x="70" y="552"/>
      <point x="74" y="542"/>
      <point x="76" y="530" type="curve"/>
      <point x="76" y="525"/>
      <point x="80" y="516"/>
      <point x="81" y="510" type="curve"/>
      <point x="91" y="474"/>
      <point x="113" y="488"/>
      <point x="137" y="507" type="curve"/>
      <point x="138" y="511"/>
      <point x="139" y="516"/>
      <point x="142" y="520" type="curve"/>
      <point x="140" y="526"/>
      <point x="140" y="531"/>
      <point x="135" y="538" type="curve"/>
      <point x="135" y="555"/>
      <point x="130" y="573"/>
      <point x="136" y="589" type="curve"/>
      <point x="133" y="605"/>
      <point x="129" y="623"/>
      <point x="132" y="639" type="curve"/>
      <point x="128" y="645"/>
      <point x="127" y="650"/>
      <point x="125" y="657" type="curve" smooth="yes"/>
      <point x="123" y="664"/>
      <point x="129" y="668"/>
      <point x="127" y="675" type="curve"/>
      <point x="128" y="688"/>
      <point x="122" y="701"/>
      <point x="120" y="714" type="curve"/>
      <point x="119" y="723"/>
      <point x="124" y="733"/>
      <point x="123" y="742" type="curve"/>
      <point x="121" y="751"/>
      <point x="125" y="759"/>
      <point x="120" y="770" type="curve"/>
    </contour>
    <contour>
      <point x="250" y="774"/>
      <point x="241" y="772"/>
      <point x="234" y="774" type="curve"/>
      <point x="213" y="766"/>
      <point x="198" y="775"/>
      <point x="176" y="760" type="curve"/>
      <point x="169" y="745"/>
      <point x="178" y="725"/>
      <point x="183" y="705" type="curve"/>
      <point x="183" y="676"/>
      <point x="192" y="648"/>
      <point x="196" y="618" type="curve"/>
      <point x="198" y="611"/>
      <point x="198" y="605"/>
      <point x="199" y="597" type="curve"/>
      <point x="205" y="564" type="line" smooth="yes"/>
      <point x="207" y="552"/>
      <point x="211" y="542"/>
      <point x="213" y="530" type="curve"/>
      <point x="213" y="525"/>
      <point x="217" y="516"/>
      <point x="218" y="510" type="curve"/>
      <point x="228" y="474"/>
      <point x="250" y="488"/>
      <point x="274" y="507" type="curve"/>
      <point x="275" y="511"/>
      <point x="276" y="516"/>
      <point x="279" y="520" type="curve"/>
      <point x="277" y="526"/>
      <point x="277" y="531"/>
      <point x="272" y="538" type="curve"/>
      <point x="272" y="555"/>
      <point x="267" y="573"/>
      <point x="273" y="589" type="curve"/>
      <point x="270" y="605"/>
      <point x="266" y="623"/>
      <point x="269" y="639" type="curve"/>
      <point x="265" y="645"/>
      <point x="264" y="650"/>
      <point x="262" y="657" type="curve" smooth="yes"/>
      <point x="260" y="664"/>
      <point x="266" y="668"/>
      <point x="264" y="675" type="curve"/>
      <point x="265" y="688"/>
      <point x="259" y="701"/>
      <point x="257" y="714" type="curve"/>
      <point x="256" y="723"/>
      <point x="261" y="733"/>
      <point x="260" y="742" type="curve"/>
      <point x="258" y="751"/>
      <point x="262" y="759"/>
      <point x="257" y="770" type="curve"/>
    </contour>
  </outline>
</glyph>
