<?xml version="1.0" encoding="UTF-8"?>
<glyph name="U" format="1">
  <advance width="567"/>
  <unicode hex="0055"/>
  <outline>
    <contour>
      <point x="52" y="688"/>
      <point x="52" y="680"/>
      <point x="48" y="675" type="curve"/>
      <point x="53" y="644"/>
      <point x="45" y="606"/>
      <point x="51" y="578" type="curve"/>
      <point x="47" y="561"/>
      <point x="50" y="544"/>
      <point x="49" y="526" type="curve"/>
      <point x="48" y="471"/>
      <point x="47" y="416"/>
      <point x="47" y="368" type="curve" smooth="yes"/>
      <point x="47" y="363"/>
      <point x="46" y="359"/>
      <point x="46" y="354" type="curve"/>
      <point x="45" y="342"/>
      <point x="47" y="330"/>
      <point x="47" y="318" type="curve" smooth="yes"/>
      <point x="47" y="305"/>
      <point x="46" y="292"/>
      <point x="46" y="280" type="curve" smooth="yes"/>
      <point x="46" y="272"/>
      <point x="49" y="264"/>
      <point x="47" y="256" type="curve"/>
      <point x="44" y="236" type="line"/>
      <point x="47" y="226"/>
      <point x="44" y="217"/>
      <point x="44" y="209" type="curve"/>
      <point x="45" y="195"/>
      <point x="52" y="183"/>
      <point x="50" y="168" type="curve"/>
      <point x="55" y="159"/>
      <point x="61" y="151"/>
      <point x="59" y="136" type="curve"/>
      <point x="63" y="132"/>
      <point x="64" y="124"/>
      <point x="69" y="119" type="curve"/>
      <point x="70" y="111"/>
      <point x="78" y="109"/>
      <point x="80" y="102" type="curve"/>
      <point x="82" y="97"/>
      <point x="83" y="90"/>
      <point x="86" y="86" type="curve"/>
      <point x="94" y="77"/>
      <point x="101" y="67"/>
      <point x="111" y="61" type="curve"/>
      <point x="115" y="56"/>
      <point x="120" y="53"/>
      <point x="126" y="50" type="curve"/>
      <point x="131" y="46"/>
      <point x="134" y="41"/>
      <point x="141" y="39" type="curve"/>
      <point x="142" y="31"/>
      <point x="147" y="28"/>
      <point x="151" y="23" type="curve"/>
      <point x="157" y="19"/>
      <point x="161" y="22"/>
      <point x="168" y="20" type="curve"/>
      <point x="173" y="14"/>
      <point x="180" y="10"/>
      <point x="187" y="7" type="curve"/>
      <point x="189" y="5"/>
      <point x="195" y="6"/>
      <point x="200" y="5" type="curve"/>
      <point x="202" y="3"/>
      <point x="204" y="0"/>
      <point x="209" y="1" type="curve"/>
      <point x="223" y="5"/>
      <point x="237" y="0"/>
      <point x="250" y="-1" type="curve" smooth="yes"/>
      <point x="266" y="-2"/>
      <point x="281" y="3"/>
      <point x="294" y="-4" type="curve"/>
      <point x="306" y="1"/>
      <point x="315" y="-1"/>
      <point x="331" y="-1" type="curve"/>
      <point x="341" y="2"/>
      <point x="353" y="4"/>
      <point x="367" y="3" type="curve"/>
      <point x="373" y="6"/>
      <point x="376" y="12"/>
      <point x="383" y="14" type="curve"/>
      <point x="391" y="15"/>
      <point x="392" y="23"/>
      <point x="403" y="21" type="curve"/>
      <point x="412" y="30"/>
      <point x="423" y="37"/>
      <point x="436" y="41" type="curve"/>
      <point x="449" y="54"/>
      <point x="459" y="70"/>
      <point x="474" y="81" type="curve"/>
      <point x="475" y="86"/>
      <point x="477" y="90"/>
      <point x="479" y="95" type="curve"/>
      <point x="485" y="103"/>
      <point x="494" y="109"/>
      <point x="499" y="119" type="curve"/>
      <point x="499" y="133"/>
      <point x="508" y="138"/>
      <point x="511" y="148" type="curve"/>
      <point x="512" y="161"/>
      <point x="516" y="172"/>
      <point x="520" y="182" type="curve"/>
      <point x="520" y="200"/>
      <point x="525" y="215"/>
      <point x="522" y="232" type="curve"/>
      <point x="527" y="261"/>
      <point x="524" y="284"/>
      <point x="520" y="314" type="curve"/>
      <point x="518" y="325"/>
      <point x="523" y="334"/>
      <point x="523" y="344" type="curve" smooth="yes"/>
      <point x="523" y="349"/>
      <point x="522" y="355"/>
      <point x="522" y="360" type="curve" smooth="yes"/>
      <point x="522" y="365"/>
      <point x="523" y="371"/>
      <point x="523" y="375" type="curve" smooth="yes"/>
      <point x="523" y="383"/>
      <point x="520" y="391"/>
      <point x="520" y="399" type="curve" smooth="yes"/>
      <point x="520" y="409"/>
      <point x="524" y="419"/>
      <point x="524" y="429" type="curve"/>
      <point x="525" y="435"/>
      <point x="529" y="438"/>
      <point x="530" y="445" type="curve"/>
      <point x="530" y="447"/>
      <point x="528" y="447"/>
      <point x="528" y="450" type="curve"/>
      <point x="526" y="455"/>
      <point x="527" y="462"/>
      <point x="527" y="468" type="curve"/>
      <point x="525" y="487" type="line"/>
      <point x="524" y="493"/>
      <point x="521" y="499"/>
      <point x="521" y="505" type="curve"/>
      <point x="518" y="525"/>
      <point x="520" y="537"/>
      <point x="527" y="550" type="curve"/>
      <point x="526" y="558"/>
      <point x="520" y="560"/>
      <point x="521" y="568" type="curve"/>
      <point x="524" y="579"/>
      <point x="521" y="591"/>
      <point x="521" y="602" type="curve" smooth="yes"/>
      <point x="521" y="631"/>
      <point x="528" y="662"/>
      <point x="521" y="688" type="curve"/>
      <point x="513" y="693"/>
      <point x="495" y="698"/>
      <point x="483" y="694" type="curve"/>
      <point x="476" y="691"/>
      <point x="475" y="683"/>
      <point x="472" y="677" type="curve"/>
      <point x="470" y="666"/>
      <point x="475" y="662"/>
      <point x="475" y="653" type="curve" smooth="yes"/>
      <point x="475" y="580"/>
      <point x="478" y="520"/>
      <point x="473" y="448" type="curve"/>
      <point x="478" y="428"/>
      <point x="476" y="403"/>
      <point x="471" y="385" type="curve"/>
      <point x="475" y="374"/>
      <point x="470" y="364"/>
      <point x="470" y="352" type="curve"/>
      <point x="469" y="332"/>
      <point x="477" y="310"/>
      <point x="470" y="292" type="curve"/>
      <point x="473" y="271"/>
      <point x="466" y="243"/>
      <point x="471" y="221" type="curve"/>
      <point x="469" y="200"/>
      <point x="463" y="182"/>
      <point x="457" y="164" type="curve"/>
      <point x="453" y="157"/>
      <point x="450" y="148"/>
      <point x="444" y="142" type="curve"/>
      <point x="443" y="131"/>
      <point x="434" y="127"/>
      <point x="431" y="117" type="curve"/>
      <point x="425" y="114"/>
      <point x="421" y="108"/>
      <point x="416" y="103" type="curve"/>
      <point x="406" y="95" type="line"/>
      <point x="402" y="92" type="line"/>
      <point x="400" y="90"/>
      <point x="400" y="91"/>
      <point x="398" y="90" type="curve"/>
      <point x="386" y="83"/>
      <point x="375" y="74"/>
      <point x="362" y="67" type="curve"/>
      <point x="352" y="64"/>
      <point x="345" y="60"/>
      <point x="337" y="55" type="curve"/>
      <point x="329" y="55"/>
      <point x="324" y="52"/>
      <point x="316" y="51" type="curve"/>
      <point x="296" y="50"/>
      <point x="276" y="57"/>
      <point x="256" y="53" type="curve"/>
      <point x="245" y="56"/>
      <point x="234" y="62"/>
      <point x="220" y="57" type="curve"/>
      <point x="209" y="67"/>
      <point x="195" y="70"/>
      <point x="184" y="78" type="curve" smooth="yes"/>
      <point x="175" y="85"/>
      <point x="169" y="95"/>
      <point x="157" y="98" type="curve"/>
      <point x="148" y="113"/>
      <point x="133" y="123"/>
      <point x="122" y="135" type="curve"/>
      <point x="117" y="147"/>
      <point x="114" y="161"/>
      <point x="107" y="171" type="curve"/>
      <point x="109" y="185"/>
      <point x="102" y="190"/>
      <point x="99" y="199" type="curve"/>
      <point x="101" y="209"/>
      <point x="99" y="224"/>
      <point x="96" y="234" type="curve"/>
      <point x="99" y="247"/>
      <point x="95" y="258"/>
      <point x="95" y="269" type="curve"/>
      <point x="93" y="290"/>
      <point x="95" y="312"/>
      <point x="99" y="330" type="curve"/>
      <point x="98" y="342"/>
      <point x="98" y="350"/>
      <point x="99" y="362" type="curve"/>
      <point x="98" y="368"/>
      <point x="95" y="373"/>
      <point x="95" y="381" type="curve"/>
      <point x="97" y="404"/>
      <point x="94" y="428"/>
      <point x="100" y="448" type="curve"/>
      <point x="96" y="468"/>
      <point x="98" y="489"/>
      <point x="98" y="508" type="curve"/>
      <point x="99" y="532"/>
      <point x="97" y="559"/>
      <point x="100" y="582" type="curve"/>
      <point x="95" y="593"/>
      <point x="97" y="604"/>
      <point x="95" y="615" type="curve"/>
      <point x="99" y="627"/>
      <point x="100" y="649"/>
      <point x="95" y="660" type="curve"/>
      <point x="98" y="668"/>
      <point x="97" y="683"/>
      <point x="93" y="690" type="curve"/>
      <point x="85" y="697"/>
      <point x="69" y="697"/>
      <point x="57" y="693" type="curve"/>
    </contour>
  </outline>
</glyph>
