<?xml version="1.0" encoding="UTF-8"?>
<glyph name="x" format="1">
  <advance width="412"/>
  <unicode hex="0078"/>
  <outline>
    <contour>
      <point x="394" y="15"/>
      <point x="409" y="19"/>
      <point x="402" y="34" type="curve"/>
      <point x="385" y="51"/>
      <point x="374" y="73"/>
      <point x="355" y="88" type="curve"/>
      <point x="352" y="100"/>
      <point x="341" y="108"/>
      <point x="336" y="116" type="curve" smooth="yes"/>
      <point x="332" y="122"/>
      <point x="326" y="126"/>
      <point x="325" y="133" type="curve"/>
      <point x="321" y="139"/>
      <point x="315" y="142"/>
      <point x="314" y="149" type="curve"/>
      <point x="298" y="160"/>
      <point x="287" y="177"/>
      <point x="276" y="192" type="curve"/>
      <point x="269" y="198"/>
      <point x="264" y="207"/>
      <point x="257" y="214" type="curve"/>
      <point x="253" y="224"/>
      <point x="242" y="227"/>
      <point x="241" y="239" type="curve"/>
      <point x="244" y="246"/>
      <point x="250" y="250"/>
      <point x="255" y="255" type="curve"/>
      <point x="260" y="261"/>
      <point x="263" y="268"/>
      <point x="269" y="272" type="curve"/>
      <point x="279" y="283"/>
      <point x="291" y="292"/>
      <point x="298" y="305" type="curve"/>
      <point x="304" y="309"/>
      <point x="308" y="314"/>
      <point x="314" y="318" type="curve"/>
      <point x="316" y="322"/>
      <point x="317" y="328"/>
      <point x="318" y="334" type="curve"/>
      <point x="334" y="345"/>
      <point x="342" y="363"/>
      <point x="359" y="373" type="curve"/>
      <point x="358" y="378"/>
      <point x="360" y="380"/>
      <point x="361" y="384" type="curve"/>
      <point x="373" y="395"/>
      <point x="388" y="409"/>
      <point x="385" y="431" type="curve"/>
      <point x="376" y="438"/>
      <point x="359" y="437"/>
      <point x="345" y="438" type="curve"/>
      <point x="336" y="434"/>
      <point x="332" y="425"/>
      <point x="325" y="420" type="curve"/>
      <point x="319" y="406"/>
      <point x="310" y="395"/>
      <point x="301" y="384" type="curve"/>
      <point x="295" y="370"/>
      <point x="283" y="362"/>
      <point x="277" y="348" type="curve"/>
      <point x="274" y="345"/>
      <point x="270" y="342"/>
      <point x="266" y="340" type="curve"/>
      <point x="256" y="321"/>
      <point x="241" y="305"/>
      <point x="228" y="289" type="curve"/>
      <point x="227" y="288"/>
      <point x="228" y="286"/>
      <point x="227" y="285" type="curve"/>
      <point x="223" y="280"/>
      <point x="218" y="278"/>
      <point x="213" y="275" type="curve"/>
      <point x="203" y="278"/>
      <point x="201" y="289"/>
      <point x="194" y="294" type="curve"/>
      <point x="187" y="300"/>
      <point x="183" y="309"/>
      <point x="176" y="315" type="curve"/>
      <point x="174" y="325"/>
      <point x="164" y="328"/>
      <point x="161" y="337" type="curve"/>
      <point x="145" y="360" type="line"/>
      <point x="142" y="364"/>
      <point x="137" y="366"/>
      <point x="134" y="370" type="curve" smooth="yes"/>
      <point x="107" y="408" type="line"/>
      <point x="103" y="415"/>
      <point x="101" y="422"/>
      <point x="96" y="428" type="curve"/>
      <point x="88" y="435"/>
      <point x="70" y="439"/>
      <point x="57" y="436" type="curve"/>
      <point x="49" y="430"/>
      <point x="44" y="424"/>
      <point x="44" y="416" type="curve" smooth="yes"/>
      <point x="44" y="398"/>
      <point x="67" y="384"/>
      <point x="72" y="371" type="curve"/>
      <point x="78" y="365"/>
      <point x="84" y="359"/>
      <point x="88" y="351" type="curve"/>
      <point x="95" y="345"/>
      <point x="102" y="339"/>
      <point x="104" y="329" type="curve"/>
      <point x="118" y="320"/>
      <point x="128" y="305"/>
      <point x="135" y="289" type="curve"/>
      <point x="148" y="277"/>
      <point x="164" y="269"/>
      <point x="173" y="253" type="curve"/>
      <point x="179" y="248"/>
      <point x="187" y="245"/>
      <point x="187" y="234" type="curve"/>
      <point x="184" y="227"/>
      <point x="177" y="220"/>
      <point x="172" y="214" type="curve"/>
      <point x="171" y="213"/>
      <point x="172" y="211"/>
      <point x="172" y="211" type="curve"/>
      <point x="171" y="210"/>
      <point x="169" y="210"/>
      <point x="169" y="209" type="curve"/>
      <point x="164" y="203"/>
      <point x="161" y="198"/>
      <point x="156" y="193" type="curve"/>
      <point x="143" y="182"/>
      <point x="135" y="165"/>
      <point x="121" y="154" type="curve"/>
      <point x="120" y="147"/>
      <point x="116" y="145"/>
      <point x="115" y="138" type="curve"/>
      <point x="105" y="133"/>
      <point x="102" y="122"/>
      <point x="93" y="118" type="curve"/>
      <point x="87" y="91"/>
      <point x="65" y="80"/>
      <point x="53" y="58" type="curve"/>
      <point x="50" y="55"/>
      <point x="44" y="54"/>
      <point x="41" y="51" type="curve"/>
      <point x="39" y="46"/>
      <point x="36" y="41"/>
      <point x="33" y="37" type="curve"/>
      <point x="29" y="33"/>
      <point x="23" y="31"/>
      <point x="24" y="23" type="curve"/>
      <point x="25" y="18"/>
      <point x="30" y="17"/>
      <point x="33" y="15" type="curve" smooth="yes"/>
      <point x="36" y="13"/>
      <point x="40" y="10"/>
      <point x="44" y="9" type="curve"/>
      <point x="49" y="8"/>
      <point x="55" y="10"/>
      <point x="61" y="9" type="curve"/>
      <point x="69" y="13"/>
      <point x="78" y="16"/>
      <point x="83" y="21" type="curve"/>
      <point x="91" y="26"/>
      <point x="94" y="34"/>
      <point x="102" y="37" type="curve"/>
      <point x="103" y="49"/>
      <point x="113" y="52"/>
      <point x="117" y="61" type="curve"/>
      <point x="122" y="68"/>
      <point x="128" y="75"/>
      <point x="134" y="81" type="curve"/>
      <point x="140" y="98"/>
      <point x="152" y="111"/>
      <point x="162" y="124" type="curve"/>
      <point x="173" y="137"/>
      <point x="185" y="149"/>
      <point x="192" y="165" type="curve"/>
      <point x="202" y="172"/>
      <point x="201" y="189"/>
      <point x="214" y="192" type="curve"/>
      <point x="223" y="189"/>
      <point x="225" y="179"/>
      <point x="230" y="173" type="curve"/>
      <point x="235" y="166"/>
      <point x="242" y="161"/>
      <point x="247" y="154" type="curve"/>
      <point x="249" y="150"/>
      <point x="252" y="146"/>
      <point x="254" y="141" type="curve"/>
      <point x="263" y="136"/>
      <point x="268" y="127"/>
      <point x="274" y="118" type="curve"/>
      <point x="279" y="115"/>
      <point x="282" y="111"/>
      <point x="284" y="105" type="curve"/>
      <point x="289" y="103"/>
      <point x="293" y="99"/>
      <point x="296" y="94" type="curve"/>
      <point x="299" y="90"/>
      <point x="300" y="83"/>
      <point x="303" y="78" type="curve"/>
      <point x="306" y="72"/>
      <point x="311" y="68"/>
      <point x="315" y="62" type="curve"/>
      <point x="317" y="58"/>
      <point x="318" y="52"/>
      <point x="320" y="48" type="curve"/>
      <point x="336" y="39"/>
      <point x="345" y="24"/>
      <point x="359" y="14" type="curve"/>
      <point x="369" y="13"/>
      <point x="376" y="11"/>
      <point x="385" y="10" type="curve"/>
    </contour>
  </outline>
</glyph>
